<?xml version="1.0" encoding="UTF-8" standalone="no"?>
<!-- Created with Inkscape (http://www.inkscape.org/) -->

<svg
   xmlns:dc="http://purl.org/dc/elements/1.1/"
   xmlns:cc="http://creativecommons.org/ns#"
   xmlns:rdf="http://www.w3.org/1999/02/22-rdf-syntax-ns#"
   xmlns:svg="http://www.w3.org/2000/svg"
   xmlns="http://www.w3.org/2000/svg"
   xmlns:xlink="http://www.w3.org/1999/xlink"
   xmlns:sodipodi="http://sodipodi.sourceforge.net/DTD/sodipodi-0.dtd"
   xmlns:inkscape="http://www.inkscape.org/namespaces/inkscape"
   width="3840"
   height="2160"
   viewBox="0 0 1016 571.50001"
   version="1.1"
   id="svg8"
   inkscape:export-filename="/home/amolith/repos/graphics/wallpapers/btw i use ___/btw-i-use-ubuntu_desktop.png"
   inkscape:export-xdpi="96"
   inkscape:export-ydpi="96"
   sodipodi:docname="btw-i-use-ubuntu_desktop.svg"
   inkscape:version="0.92.2 2405546, 2018-03-11">
  <defs
     id="defs2"><linearGradient
   gradientTransform="translate(287,-83)"
   gradientUnits="userSpaceOnUse"
   id="path1082_2_"
   y2="129.3468"
   x2="112.49853"
   y1="6.1372099"
   x1="112.49854">
  <stop
     offset="0"
     style="stop-color:#ffffff;stop-opacity:0"
     id="stop193" />
  <stop
     offset="1"
     style="stop-color:#ffffff;stop-opacity:0.27450982"
     id="stop195" />
  <midPointStop
     id="midPointStop197"
     style="stop-color:#FFFFFF"
     offset="0" />
  <midPointStop
     id="midPointStop199"
     style="stop-color:#FFFFFF"
     offset="0.5" />
  <midPointStop
     id="midPointStop201"
     style="stop-color:#000000"
     offset="1" />
</linearGradient>
<linearGradient
   gradientTransform="matrix(-0.3937741,0,0,0.393752,357.51969,122.00151)"
   gradientUnits="userSpaceOnUse"
   xlink:href="#path1082_2_"
   id="linearGradient2544"
   y2="303.14029"
   x2="606.91248"
   y1="104.50665"
   x1="541.33502" />
<linearGradient
   id="linearGradient3388">
  <stop
     offset="0"
     style="stop-color:#000000;stop-opacity:0"
     id="stop3390" />
  <stop
     offset="1"
     style="stop-color:#000000;stop-opacity:0.37113401"
     id="stop3392" />
</linearGradient>
<linearGradient
   gradientTransform="matrix(0.749107,0,0,0.749107,-35.459862,91.44108)"
   gradientUnits="userSpaceOnUse"
   xlink:href="#linearGradient3388"
   id="linearGradient4416"
   y2="183.9644"
   x2="490.72305"
   y1="237.72447"
   x1="490.72305" />

	
	
</defs>
  <sodipodi:namedview
     id="base"
     pagecolor="#ffffff"
     bordercolor="#666666"
     borderopacity="1.0"
     inkscape:pageopacity="0.0"
     inkscape:pageshadow="2"
     inkscape:zoom="0.12374369"
     inkscape:cx="1787.5471"
     inkscape:cy="1257.6514"
     inkscape:document-units="px"
     inkscape:current-layer="layer1"
     showgrid="false"
     units="px"
     inkscape:snap-nodes="false"
     inkscape:snap-others="false"
     inkscape:window-width="653"
     inkscape:window-height="700"
     inkscape:window-x="19"
     inkscape:window-y="45"
     inkscape:window-maximized="0"
     fit-margin-top="0"
     fit-margin-left="0"
     fit-margin-right="0"
     fit-margin-bottom="0" />
  <metadata
     id="metadata5">
    <rdf:RDF>
      <cc:Work
         rdf:about="">
        <dc:format>image/svg+xml</dc:format>
        <dc:type
           rdf:resource="http://purl.org/dc/dcmitype/StillImage" />
        <dc:title></dc:title>
      </cc:Work>
    </rdf:RDF>
  </metadata>
  <g
     inkscape:groupmode="layer"
     id="layer3"
     inkscape:label="background"
     transform="translate(1.0937501e-6,63.499996)">
    <rect
       style="opacity:1;fill:#1a1a1a;fill-opacity:1;stroke:none;stroke-width:0.02645834;stroke-miterlimit:4;stroke-dasharray:none;stroke-dashoffset:0;stroke-opacity:1"
       id="rect815"
       width="1016"
       height="571.5"
       x="-1.0937501e-06"
       y="-63.499996"
       inkscape:export-xdpi="96"
       inkscape:export-ydpi="96" />
  </g>
  <g
     inkscape:groupmode="layer"
     id="layer2"
     inkscape:label="shadow"
     transform="translate(1.0937501e-6,63.499996)" />
  <g
     inkscape:label="image"
     inkscape:groupmode="layer"
     id="layer1"
     transform="translate(1.0937501e-6,274.50002)">
    <g
       id="g4702">
      <path
         style="stroke-width:0.38149956;fill:#333333;fill-opacity:1"
         id="path4632"
         d="m 559.95402,-23.167991 c 0,29.863404 -24.20615,54.07184 -54.06955,54.07184 -29.8634,0 -54.07184,-24.208436 -54.07184,-54.07184 0,-29.861497 24.20882,-54.06917 54.07184,-54.06917 29.8634,0 54.06955,24.207292 54.06955,54.06917 z"
         inkscape:connector-curvature="0" />
      <path
         id="path4634"
         d="m 477.82174,-23.167991 c 0,3.839412 -3.11265,6.952829 -6.95473,6.952829 -3.83751,0 -6.95016,-3.113036 -6.95016,-6.952829 0,-3.837886 3.11265,-6.950541 6.95016,-6.950541 3.84208,0 6.95473,3.112655 6.95473,6.950541 z m 39.55159,33.80315 c 1.92009,3.32248 6.16999,4.462019 9.49514,2.544602 3.32477,-1.920087 4.46393,-6.1722813 2.54422,-9.4974315 -1.9197,-3.32476867 -6.16999,-4.46163736 -9.49476,-2.5419316 -3.32515,1.9200873 -4.46431,6.1699924 -2.5446,9.4947611 z m 12.03898,-60.651563 c 1.91971,-3.325532 0.78284,-7.576581 -2.54422,-9.49438 -3.32286,-1.919705 -7.57467,-0.780548 -9.49514,2.543458 -1.91971,3.324769 -0.78055,7.575437 2.5446,9.495142 3.32515,1.919706 7.57734,0.780549 9.49476,-2.54422 z m -23.52784,7.024551 c 10.35886,0 18.85905,7.940532 19.7468,18.069345 l 10.0609,-0.158703 c -0.47763,-7.525842 -3.74212,-14.294407 -8.77258,-19.285185 -2.66286,1.027379 -5.75263,0.88775 -8.41817,-0.652364 -2.66744,-1.540114 -4.33345,-4.147282 -4.77408,-6.971904 -2.50035,-0.67907 -5.13041,-1.042639 -7.84287,-1.042639 -4.75768,0 -9.2548,1.112453 -13.24834,3.091291 l 4.89541,8.790895 c 2.53697,-1.178834 5.37037,-1.840736 8.35293,-1.840736 z m -19.82615,19.823862 c 0,-6.705618 3.33202,-12.635647 8.42999,-16.221361 l -5.1655,-8.634861 c -5.98344,3.995826 -10.4405,10.091044 -12.32091,17.237294 2.22529,1.791904 3.65095,4.538701 3.65095,7.619309 0,3.082517 -1.42604,5.829314 -3.65095,7.621599 1.88041,7.1458679 6.33747,13.2410864 12.32091,17.2392018 l 5.1655,-8.6348611 c -5.09797,-3.5883847 -8.42999,-9.5161247 -8.42999,-16.2263207 z m 19.82615,19.8276766 c -2.98218,0 -5.81558,-0.6615202 -8.35293,-1.8426429 l -4.89541,8.7908944 c 3.99354,1.9803642 8.49028,3.0916724 13.24834,3.0916724 2.71208,0 5.34252,-0.3608986 7.84287,-1.0411123 0.44025,-2.8265302 2.10626,-5.43369822 4.77408,-6.9711414 2.66554,-1.5401138 5.75531,-1.6801241 8.41817,-0.6527458 5.03084,-4.9930662 8.29495,-11.761631 8.77258,-19.287473 l -10.0609,-0.156034 c -0.88813,10.126143 -9.38794,18.0685826 -19.7468,18.0685826 z"
         inkscape:connector-curvature="0"
         style="fill:#ffffff;stroke-width:0.38149956;fill-opacity:1" />
    </g>
    <text
       xml:space="preserve"
       style="font-style:normal;font-variant:normal;font-weight:normal;font-stretch:normal;font-size:23.77400398px;line-height:1.25;font-family:Ubuntu;-inkscape-font-specification:Ubuntu;letter-spacing:0px;word-spacing:0px;fill:#ffffff;fill-opacity:1;stroke:none;stroke-width:1.27360737"
       x="402.8559"
       y="99.350037"
       id="text3868"><tspan
         sodipodi:role="line"
         id="tspan3866"
         x="402.8559"
         y="99.350037"
         style="font-style:normal;font-variant:normal;font-weight:normal;font-stretch:normal;font-family:Comfortaa;-inkscape-font-specification:Comfortaa;fill:#ffffff;fill-opacity:1;stroke-width:1.27360737">btw i use ubuntu</tspan></text>
  </g>
</svg>
