<?xml version="1.0" encoding="UTF-8" standalone="no"?>
<!-- Created with Inkscape (http://www.inkscape.org/) -->

<svg
   xmlns:dc="http://purl.org/dc/elements/1.1/"
   xmlns:cc="http://creativecommons.org/ns#"
   xmlns:rdf="http://www.w3.org/1999/02/22-rdf-syntax-ns#"
   xmlns:svg="http://www.w3.org/2000/svg"
   xmlns="http://www.w3.org/2000/svg"
   xmlns:xlink="http://www.w3.org/1999/xlink"
   xmlns:sodipodi="http://sodipodi.sourceforge.net/DTD/sodipodi-0.dtd"
   xmlns:inkscape="http://www.inkscape.org/namespaces/inkscape"
   width="3840"
   height="2160"
   viewBox="0 0 1016 571.50001"
   version="1.1"
   id="svg8"
   inkscape:export-filename="/home/amolith/repos/graphics/btw i use ___/fedora/btw-i-use-fedora_desktop.png"
   inkscape:export-xdpi="96"
   inkscape:export-ydpi="96"
   sodipodi:docname="btw-i-use-solus_desktop.svg"
   inkscape:version="0.92.2 2405546, 2018-03-11">
  <defs
     id="defs2">
    <linearGradient
       gradientTransform="translate(287,-83)"
       gradientUnits="userSpaceOnUse"
       id="path1082_2_"
       y2="129.3468"
       x2="112.49853"
       y1="6.1372099"
       x1="112.49854">
      <stop
         offset="0"
         style="stop-color:#ffffff;stop-opacity:0"
         id="stop193" />
      <stop
         offset="1"
         style="stop-color:#ffffff;stop-opacity:0.27450982"
         id="stop195" />
      <midPointStop
         id="midPointStop197"
         style="stop-color:#FFFFFF"
         offset="0" />
      <midPointStop
         id="midPointStop199"
         style="stop-color:#FFFFFF"
         offset="0.5" />
      <midPointStop
         id="midPointStop201"
         style="stop-color:#000000"
         offset="1" />
    </linearGradient>
    <linearGradient
       gradientTransform="matrix(-0.3937741,0,0,0.393752,357.51969,122.00151)"
       gradientUnits="userSpaceOnUse"
       xlink:href="#path1082_2_"
       id="linearGradient2544"
       y2="303.14029"
       x2="606.91248"
       y1="104.50665"
       x1="541.33502" />
    <linearGradient
       id="linearGradient3388">
      <stop
         offset="0"
         style="stop-color:#000000;stop-opacity:0"
         id="stop3390" />
      <stop
         offset="1"
         style="stop-color:#000000;stop-opacity:0.37113401"
         id="stop3392" />
    </linearGradient>
    <linearGradient
       gradientTransform="matrix(0.749107,0,0,0.749107,-35.459862,91.44108)"
       gradientUnits="userSpaceOnUse"
       xlink:href="#linearGradient3388"
       id="linearGradient4416"
       y2="183.9644"
       x2="490.72305"
       y1="237.72447"
       x1="490.72305" />
  </defs>
  <sodipodi:namedview
     id="base"
     pagecolor="#ffffff"
     bordercolor="#666666"
     borderopacity="1.0"
     inkscape:pageopacity="0.0"
     inkscape:pageshadow="2"
     inkscape:zoom="0.175"
     inkscape:cx="1493.8426"
     inkscape:cy="991.8305"
     inkscape:document-units="px"
     inkscape:current-layer="layer3"
     showgrid="false"
     units="px"
     inkscape:snap-nodes="false"
     inkscape:snap-others="false"
     inkscape:window-width="1328"
     inkscape:window-height="704"
     inkscape:window-x="19"
     inkscape:window-y="45"
     inkscape:window-maximized="0"
     fit-margin-top="0"
     fit-margin-left="0"
     fit-margin-right="0"
     fit-margin-bottom="0" />
  <metadata
     id="metadata5">
    <rdf:RDF>
      <cc:Work
         rdf:about="">
        <dc:format>image/svg+xml</dc:format>
        <dc:type
           rdf:resource="http://purl.org/dc/dcmitype/StillImage" />
        <dc:title></dc:title>
      </cc:Work>
    </rdf:RDF>
  </metadata>
  <g
     inkscape:groupmode="layer"
     id="layer3"
     inkscape:label="background"
     transform="translate(1.0937501e-6,63.499996)">
    <rect
       style="opacity:1;fill:#1a1a1a;fill-opacity:1;stroke:none;stroke-width:0.02645834;stroke-miterlimit:4;stroke-dasharray:none;stroke-dashoffset:0;stroke-opacity:1"
       id="rect815"
       width="1016"
       height="571.5"
       x="-1.0937501e-06"
       y="-63.499996"
       inkscape:export-xdpi="96"
       inkscape:export-ydpi="96" />
  </g>
  <g
     inkscape:groupmode="layer"
     id="layer2"
     inkscape:label="shadow"
     transform="translate(1.0937501e-6,63.499996)">
    <g
       id="g1150"
       transform="translate(2.1167639)">
      <circle
         style="fill:#707070;fill-opacity:1;stroke:none;stroke-width:2.45651078;stroke-miterlimit:4;stroke-dasharray:none;stroke-opacity:1"
         id="circle4804-0"
         cx="504.24557"
         cy="189.44548"
         r="52.405556"
         inkscape:export-xdpi="90"
         inkscape:export-ydpi="90" />
      <path
         style="color:#000000;font-style:normal;font-variant:normal;font-weight:normal;font-stretch:normal;font-size:medium;line-height:normal;font-family:sans-serif;text-indent:0;text-align:start;text-decoration:none;text-decoration-line:none;text-decoration-style:solid;text-decoration-color:#000000;letter-spacing:normal;word-spacing:normal;text-transform:none;writing-mode:lr-tb;direction:ltr;baseline-shift:baseline;text-anchor:start;white-space:normal;clip-rule:nonzero;display:inline;overflow:visible;visibility:visible;opacity:1;isolation:auto;mix-blend-mode:normal;color-interpolation:sRGB;color-interpolation-filters:linearRGB;solid-color:#000000;solid-opacity:1;fill:#707070;fill-opacity:1;fill-rule:evenodd;stroke:none;stroke-width:3.53579688;stroke-linecap:butt;stroke-linejoin:miter;stroke-miterlimit:4;stroke-dasharray:none;stroke-dashoffset:0;stroke-opacity:1;color-rendering:auto;image-rendering:auto;shape-rendering:auto;text-rendering:auto;enable-background:accumulate"
         d="m 485.41232,133.76456 c -7.88603,25.75963 -19.54345,50.27401 -32.75348,73.69532 l -0.81884,1.63768 1.2623,0.65052 c 1.10815,0.51449 2.56701,0.86045 4.54198,1.25544 1.97498,0.39499 4.40441,0.78867 7.13443,1.17868 5.46007,0.78001 12.11732,1.54241 18.57577,2.21342 12.91691,1.34202 25.04169,2.32057 25.04169,2.32057 l 2.06309,0.16633 -0.15832,-2.06469 c 0,0 -3.19916,-41.62141 -3.79672,-48.46011 l -0.032,-0.36944 -0.17912,-0.32625 c -3.7861,-6.0462 -18.49263,-31.18536 -20.88076,-31.89747 z m 1.63767,7.36953 c 5.59103,9.83576 10.42115,15.41246 16.37674,26.20279 0.59424,6.87668 2.93387,42.38201 3.18624,45.66256 -1.76669,-0.14438 -11.09348,-0.89465 -22.89385,-2.12066 -6.43312,-0.66838 -13.05922,-1.42717 -18.43983,-2.19583 -2.69029,-0.38432 -5.07037,-0.77258 -6.94092,-1.14669 -0.92292,-0.18459 -0.94319,-0.72123 -1.58535,-0.89521 9.64806,-17.04698 24.97357,-43.78135 30.29697,-65.50696 z"
         id="path4806-5"
         inkscape:connector-curvature="0"
         sodipodi:nodetypes="ccccsssccccccccccssscc" />
      <path
         style="color:#000000;font-style:normal;font-variant:normal;font-weight:normal;font-stretch:normal;font-size:medium;line-height:normal;font-family:sans-serif;text-indent:0;text-align:start;text-decoration:none;text-decoration-line:none;text-decoration-style:solid;text-decoration-color:#000000;letter-spacing:normal;word-spacing:normal;text-transform:none;writing-mode:lr-tb;direction:ltr;baseline-shift:baseline;text-anchor:start;white-space:normal;clip-rule:nonzero;display:inline;overflow:visible;visibility:visible;opacity:1;isolation:auto;mix-blend-mode:normal;color-interpolation:sRGB;color-interpolation-filters:linearRGB;solid-color:#000000;solid-opacity:1;fill:#ffffff;fill-opacity:1;fill-rule:evenodd;stroke:none;stroke-width:3.53579688;stroke-linecap:butt;stroke-linejoin:miter;stroke-miterlimit:4;stroke-dasharray:none;stroke-dashoffset:0;stroke-opacity:1;color-rendering:auto;image-rendering:auto;shape-rendering:auto;text-rendering:auto;enable-background:accumulate"
         d="m 555.53959,200.21383 c -7.65261,10.32379 -21.78858,15.84126 -38.62899,18.28808 -17.57,2.55282 -37.94346,1.79431 -56.12218,0.24149 0.87069,1.30063 1.82635,2.56161 2.80991,3.77913 17.49985,1.38742 36.7804,1.95447 53.82084,-0.52137 14.212,-2.06493 27.05406,-6.25439 35.86433,-14.04018 0.96133,-2.50326 1.75183,-5.27602 2.25609,-7.74715 z"
         id="path4808-8"
         inkscape:connector-curvature="0"
         sodipodi:nodetypes="csccscc" />
      <path
         style="color:#000000;font-style:normal;font-variant:normal;font-weight:normal;font-stretch:normal;font-size:medium;line-height:normal;font-family:sans-serif;text-indent:0;text-align:start;text-decoration:none;text-decoration-line:none;text-decoration-style:solid;text-decoration-color:#000000;letter-spacing:normal;word-spacing:normal;text-transform:none;writing-mode:lr-tb;direction:ltr;baseline-shift:baseline;text-anchor:start;white-space:normal;clip-rule:nonzero;display:inline;overflow:visible;visibility:visible;opacity:1;isolation:auto;mix-blend-mode:normal;color-interpolation:sRGB;color-interpolation-filters:linearRGB;solid-color:#000000;solid-opacity:1;fill:#707070;fill-opacity:1;fill-rule:evenodd;stroke:none;stroke-width:3.53579688;stroke-linecap:butt;stroke-linejoin:miter;stroke-miterlimit:4;stroke-dasharray:none;stroke-dashoffset:0;stroke-opacity:1;color-rendering:auto;image-rendering:auto;shape-rendering:auto;text-rendering:auto;enable-background:accumulate"
         d="m 513.25277,172.2499 -0.84237,3.68437 c 8.22816,5.50376 16.06952,10.30905 21.16182,15.41876 5.09229,5.10973 7.47856,10.13819 5.54314,17.17959 l -0.902,3.28654 3.20657,-1.15468 c 10.01886,-3.60485 14.77935,-10.59019 17.68771,-16.30599 l 0.81883,-1.63767 -1.63767,-1.63767 c -4.88283,-5.14208 -12.42494,-8.55031 -21.17575,-11.65283 -8.75082,-3.10252 -18.28154,-5.83518 -23.86028,-7.18042 z m 9.77372,6.51032 c 4.0724,1.11921 8.50888,2.44453 12.90468,4.00303 7.97598,2.82781 15.5273,6.46386 19.79442,10.39379 -2.43991,4.49943 -6.16095,9.68896 -12.58002,12.91427 0.68823,-6.73237 -2.27827,-12.40617 -7.06887,-17.21317 -3.53614,-3.54824 -8.15393,-6.81685 -13.05021,-10.09792 z"
         id="path4810-6"
         inkscape:connector-curvature="0"
         sodipodi:nodetypes="ccsccccccsccsccsc" />
      <circle
         inkscape:export-ydpi="90"
         inkscape:export-xdpi="90"
         r="52.467022"
         cy="189.384"
         cx="504.30704"
         id="circle4812-0"
         style="fill:#500000;fill-opacity:0;stroke:none;stroke-width:2.45651078;stroke-miterlimit:4;stroke-dasharray:none;stroke-opacity:1" />
      <path
         style="fill:#333333;fill-opacity:1;stroke:none;stroke-width:2.45651078;stroke-miterlimit:4;stroke-dasharray:none;stroke-opacity:1"
         d="m 517.41593,221.99952 c -17.80785,2.51281 -35.94708,1.88982 -53.8176,0.52301 11.5,14.66576 31.48691,22.05638 49.94902,18.49425 17.81801,-3.06264 33.43587,-16.11117 39.7272,-33.04034 -10.58093,7.50547 -23.08185,12.06084 -35.85862,14.02308 z"
         id="path4814-1"
         inkscape:connector-curvature="0"
         sodipodi:nodetypes="ccccc" />
      <path
         inkscape:export-ydpi="90"
         inkscape:export-xdpi="90"
         sodipodi:nodetypes="cccc"
         inkscape:connector-curvature="0"
         id="path4816-6"
         d="m 507.52091,168.97455 c 7.89238,16.25835 7.89952,32.34331 3.27535,44.21719 6.51121,0.0394 17.13636,0.76952 28.65929,-4.91302 -9.4709,-21.62518 -31.93465,-39.30417 -31.93464,-39.30417 z"
         style="fill:#ffffff;fill-opacity:1;fill-rule:evenodd;stroke:none;stroke-width:0.81883693px;stroke-linecap:butt;stroke-linejoin:miter;stroke-opacity:1" />
      <path
         style="fill:#ffffff;fill-opacity:1;fill-rule:evenodd;stroke:none;stroke-width:3.53579688;stroke-linecap:butt;stroke-linejoin:miter;stroke-miterlimit:4;stroke-dasharray:none;stroke-opacity:1"
         d="m 487.04999,141.13409 c -5.32363,21.72548 -20.64906,48.46021 -30.29697,65.50696 l 8.52788,2.0435 c 5.3806,0.76865 12.00669,1.52744 18.43982,2.19583 11.79955,1.22592 21.21348,2.16689 22.98135,2.31136 -0.25252,-3.28262 -2.68098,-38.97652 -3.27534,-45.85486 -5.95559,-10.79033 -10.78571,-16.36703 -16.37674,-26.20279 z"
         id="path4819-6"
         inkscape:connector-curvature="0"
         sodipodi:nodetypes="cccsccc" />
      <path
         style="fill:#ffffff;fill-opacity:1;fill-rule:evenodd;stroke:none;stroke-width:3.53579688;stroke-linecap:butt;stroke-linejoin:miter;stroke-miterlimit:4;stroke-dasharray:none;stroke-opacity:1"
         d="m 523.07881,178.80059 c 4.89771,3.28192 9.56436,6.27691 13.10139,9.82605 4.79026,4.80665 7.23836,11.28264 6.5507,18.01441 6.41832,-3.22495 10.66146,-8.60231 13.10139,-13.10139 -4.2673,-3.92962 -11.67665,-7.81726 -19.65209,-10.64488 -4.39763,-1.55914 -9.02762,-2.9747 -13.10139,-4.09419 z"
         id="path4821-7"
         inkscape:connector-curvature="0"
         sodipodi:nodetypes="csccsc" />
    </g>
  </g>
  <g
     inkscape:label="image"
     inkscape:groupmode="layer"
     id="layer1"
     transform="translate(1.0937501e-6,274.50002)">
    <text
       xml:space="preserve"
       style="font-style:normal;font-variant:normal;font-weight:normal;font-stretch:normal;font-size:23.77400398px;line-height:1.25;font-family:Ubuntu;-inkscape-font-specification:Ubuntu;letter-spacing:0px;word-spacing:0px;fill:#ffffff;fill-opacity:1;stroke:none;stroke-width:1.27360737"
       x="417.5466"
       y="99.350037"
       id="text3868"><tspan
         sodipodi:role="line"
         id="tspan3866"
         x="417.5466"
         y="99.350037"
         style="font-style:normal;font-variant:normal;font-weight:normal;font-stretch:normal;font-family:Comfortaa;-inkscape-font-specification:Comfortaa;fill:#ffffff;fill-opacity:1;stroke-width:1.27360737">btw i use solus</tspan></text>
  </g>
</svg>
