<?xml version="1.0" encoding="UTF-8" standalone="no"?>
<!-- Created with Inkscape (http://www.inkscape.org/) -->

<svg
   xmlns:dc="http://purl.org/dc/elements/1.1/"
   xmlns:cc="http://creativecommons.org/ns#"
   xmlns:rdf="http://www.w3.org/1999/02/22-rdf-syntax-ns#"
   xmlns:svg="http://www.w3.org/2000/svg"
   xmlns="http://www.w3.org/2000/svg"
   xmlns:xlink="http://www.w3.org/1999/xlink"
   xmlns:sodipodi="http://sodipodi.sourceforge.net/DTD/sodipodi-0.dtd"
   xmlns:inkscape="http://www.inkscape.org/namespaces/inkscape"
   width="3840"
   height="2160"
   viewBox="0 0 1016 571.50001"
   version="1.1"
   id="svg8"
   inkscape:export-filename="/home/amolith/repos/graphics/wallpapers/desktop/btw-i-use-arch.png"
   inkscape:export-xdpi="96"
   inkscape:export-ydpi="96"
   sodipodi:docname="btw-i-use-arch.svg"
   inkscape:version="0.92.2 2405546, 2018-03-11">
  <defs
     id="defs2">
    <linearGradient
       gradientTransform="translate(287,-83)"
       gradientUnits="userSpaceOnUse"
       id="path1082_2_"
       y2="129.3468"
       x2="112.49853"
       y1="6.1372099"
       x1="112.49854">
      <stop
         offset="0"
         style="stop-color:#ffffff;stop-opacity:0"
         id="stop193" />
      <stop
         offset="1"
         style="stop-color:#ffffff;stop-opacity:0.27450982"
         id="stop195" />
      <midPointStop
         id="midPointStop197"
         style="stop-color:#FFFFFF"
         offset="0" />
      <midPointStop
         id="midPointStop199"
         style="stop-color:#FFFFFF"
         offset="0.5" />
      <midPointStop
         id="midPointStop201"
         style="stop-color:#000000"
         offset="1" />
    </linearGradient>
    <linearGradient
       gradientTransform="matrix(-0.3937741,0,0,0.393752,357.51969,122.00151)"
       gradientUnits="userSpaceOnUse"
       xlink:href="#path1082_2_"
       id="linearGradient2544"
       y2="303.14029"
       x2="606.91248"
       y1="104.50665"
       x1="541.33502" />
    <linearGradient
       id="linearGradient3388">
      <stop
         offset="0"
         style="stop-color:#000000;stop-opacity:0"
         id="stop3390" />
      <stop
         offset="1"
         style="stop-color:#000000;stop-opacity:0.37113401"
         id="stop3392" />
    </linearGradient>
    <linearGradient
       gradientTransform="matrix(0.749107,0,0,0.749107,-35.459862,91.44108)"
       gradientUnits="userSpaceOnUse"
       xlink:href="#linearGradient3388"
       id="linearGradient4416"
       y2="183.9644"
       x2="490.72305"
       y1="237.72447"
       x1="490.72305" />
  </defs>
  <sodipodi:namedview
     id="base"
     pagecolor="#ffffff"
     bordercolor="#666666"
     borderopacity="1.0"
     inkscape:pageopacity="0.0"
     inkscape:pageshadow="2"
     inkscape:zoom="0.0875"
     inkscape:cx="1173.329"
     inkscape:cy="648.94245"
     inkscape:document-units="px"
     inkscape:current-layer="layer1"
     showgrid="false"
     units="px"
     inkscape:snap-nodes="false"
     inkscape:snap-others="false"
     inkscape:window-width="1328"
     inkscape:window-height="704"
     inkscape:window-x="19"
     inkscape:window-y="45"
     inkscape:window-maximized="0"
     fit-margin-top="0"
     fit-margin-left="0"
     fit-margin-right="0"
     fit-margin-bottom="0" />
  <metadata
     id="metadata5">
    <rdf:RDF>
      <cc:Work
         rdf:about="">
        <dc:format>image/svg+xml</dc:format>
        <dc:type
           rdf:resource="http://purl.org/dc/dcmitype/StillImage" />
        <dc:title></dc:title>
      </cc:Work>
    </rdf:RDF>
  </metadata>
  <g
     inkscape:groupmode="layer"
     id="layer3"
     inkscape:label="background"
     transform="translate(1.0937501e-6,63.499996)">
    <rect
       style="opacity:1;fill:#1a1a1a;fill-opacity:1;stroke:none;stroke-width:0.02645834;stroke-miterlimit:4;stroke-dasharray:none;stroke-dashoffset:0;stroke-opacity:1"
       id="rect815"
       width="1016"
       height="571.5"
       x="-1.0937501e-06"
       y="-63.499996"
       inkscape:export-xdpi="96"
       inkscape:export-ydpi="96" />
  </g>
  <g
     inkscape:groupmode="layer"
     id="layer2"
     inkscape:label="shadow"
     transform="translate(1.0937501e-6,63.499996)" />
  <g
     inkscape:label="image"
     inkscape:groupmode="layer"
     id="layer1"
     transform="translate(1.0937501e-6,274.50002)">
    <g
       id="g3918">
      <g
         transform="translate(363.00846,-26.253126)"
         id="g3864">
        <path
           transform="translate(0,-211.00002)"
           inkscape:connector-curvature="0"
           d="m 147.09837,163.19771 c -4.81267,11.79938 -7.71544,19.51756 -13.07371,30.9662 3.2853,3.48243 7.31783,7.53785 13.86667,12.11811 -7.04064,-2.89718 -11.84323,-5.8059 -15.43226,-8.82427 -6.85758,14.30939 -17.60143,34.69248 -39.404177,73.86754 17.136247,-9.89302 30.419917,-15.99219 42.799677,-18.31946 -0.53158,-2.28637 -0.83383,-4.75953 -0.8133,-7.34001 l 0.0197,-0.54897 c 0.27192,-10.97871 5.98303,-19.42134 12.7484,-18.84812 6.76537,0.57324 12.02402,9.94331 11.75212,20.92202 -0.0512,2.06587 -0.28417,4.05319 -0.6913,5.8964 12.24535,2.39541 25.38698,8.47895 42.29133,18.23814 -3.3332,-6.13667 -6.30837,-11.66844 -9.14956,-16.93686 -4.47534,-3.46868 -9.14332,-7.98319 -18.66511,-12.8704 6.54474,1.70059 11.23069,3.66263 14.88329,5.85573 -28.88719,-53.78279 -31.22645,-60.92942 -41.13248,-84.17605 z"
           id="path3752"
           style="fill:#333333;fill-opacity:1;fill-rule:evenodd;stroke:none;stroke-width:0.65063608" />
        <path
           style="fill:#ffffff;fill-opacity:1;fill-rule:evenodd;stroke:none;stroke-width:0.65063608"
           id="path2518"
           d="m 142.86501,160.02269 c -4.81267,11.79938 -7.71544,19.51756 -13.07371,30.9662 3.2853,3.48243 7.31783,7.53785 13.86667,12.11811 -7.04064,-2.89718 -11.84323,-5.8059 -15.43226,-8.82427 -6.85758,14.30939 -17.60143,34.69248 -39.404153,73.86754 17.136223,-9.89302 30.419893,-15.99219 42.799653,-18.31946 -0.53158,-2.28637 -0.83383,-4.75953 -0.8133,-7.34001 l 0.0197,-0.54897 c 0.27192,-10.97871 5.98303,-19.42134 12.7484,-18.84812 6.76537,0.57324 12.02402,9.94331 11.75212,20.92202 -0.0512,2.06587 -0.28417,4.05319 -0.6913,5.8964 12.24535,2.39541 25.38698,8.47895 42.29133,18.23814 -3.3332,-6.13667 -6.30837,-11.66844 -9.14956,-16.93686 -4.47534,-3.46868 -9.14332,-7.98319 -18.66511,-12.8704 6.54474,1.70059 11.23069,3.66263 14.88329,5.85573 -28.88719,-53.78279 -31.22645,-60.92942 -41.13248,-84.17605 z"
           inkscape:connector-curvature="0"
           transform="translate(0,-211.00002)"
           inkscape:export-xdpi="96"
           inkscape:export-ydpi="96" />
      </g>
      <text
         id="text3868"
         y="99.350037"
         x="422.24307"
         style="font-style:normal;font-variant:normal;font-weight:normal;font-stretch:normal;font-size:23.77400398px;line-height:1.25;font-family:Ubuntu;-inkscape-font-specification:Ubuntu;letter-spacing:0px;word-spacing:0px;fill:#ffffff;fill-opacity:1;stroke:none;stroke-width:1.27360737"
         xml:space="preserve"><tspan
           style="font-style:normal;font-variant:normal;font-weight:normal;font-stretch:normal;font-family:Comfortaa;-inkscape-font-specification:Comfortaa;fill:#ffffff;fill-opacity:1;stroke-width:1.27360737"
           y="99.350037"
           x="422.24307"
           id="tspan3866"
           sodipodi:role="line">btw i use arch</tspan></text>
    </g>
  </g>
</svg>
